{
  "key": "atlassian-connect-spring-boot-legacy-jwt-it",
  "baseUrl": "http://localhost:8081",
  "authentication": {
    "type": "jwt"
  },
  "lifecycle": {
    "installed": "/installed",
    "uninstalled": "/uninstalled"
  },
  "apiMigrations": {
    "signed-install": false
  }
}
